{
	"id":"MacBookPro",
	"cam_model":"Nex-5R (Silver v1.03)",
	"cam_sn":"1234567",
	"cam_mac":"aa:bb:cc:dd:ee:ff",
	"cam_ssid":"DIRECT-1234:Nex5R",
	"cam_pw":"abcd1234",
	"cam_ip":"192.168.122.1:8080",
	"lens_model":"SELP1650 (Sliver)",
	"lens_sn":"1234567",
	"ctrl_model":"MacBook Pro",
	"ctrl_sn":"123456ABCDEF",
	"ctrl_os":"osx",
	"ctrl_card_model":"",
	"ctrl_card_sn":"",
	"ctrl_net1_id":"en0",
	"ctrl_net1_type":"Wireless",
	"ctrl_net1_mac":"aa:bb:cc:dd:ee:ff",
	"ctrl_net1_ip":"",
	"ctrl_net2_id":"",
	"ctrl_net2_type":"",
	"ctrl_net2_mac":"",
	"ctrl_net2_ip":""
}
