[
	{
		"id":"ADMBP2b",
		"cam_model":"ILCE-5100 (White v1.10)",
		"cam_sn":"5276890",
		"cam_mac":"fc:db:b3:1c:f8:41",
		"cam_ssid":"DIRECT-opE0:E001",
		"cam_pw":"dMVNUfqG",
		"cam_ip":"192.168.122.1:8080",
		"lens_model":"SELP1650 (Sliver)",
		"lens_sn":"7490434",
		"ctrl_model":"MacBook Pro (15-inch, 2016)",
		"ctrl_sn":"C02SXA57GTF1",
		"ctrl_os":"osx",
		"ctrl_card_model":"",
		"ctrl_card_sn":"",
		"ctrl_net1_id":"en0",
		"ctrl_net1_type":"Wireless",
		"ctrl_net1_mac":"78:4f:43:50:8e:97",
		"ctrl_net1_ip":"",
		"ctrl_net2_id":"en7",
		"ctrl_net2_type":"Ethernet (USB)",
		"ctrl_net2_mac":"48:65:ee:19:2e:6b",
		"ctrl_net2_ip":""
	},
	{
		"id":"B001",
		"cam_model":"Nex-5R (Black v1.03)",
		"cam_sn":"3415978",
		"cam_mac":"20:02:af:3c:32:47",
		"cam_ssid":"DIRECT-vQE0:B001",
		"cam_pw":"mQD8y2jW",
		"cam_ip":"192.168.122.1:8080",
		"lens_model":"SELP1650 (Black)",
		"lens_sn":"1841581",
		"ctrl_model":"",
		"ctrl_sn":"",
		"ctrl_os":"",
		"ctrl_card_model":"",
		"ctrl_card_sn":"",
		"ctrl_net1_id":"",
		"ctrl_net1_type":"",
		"ctrl_net1_mac":"02:b4:38:b9:ee:35",
		"ctrl_net1_ip":"192.168.23.141",
		"ctrl_net2_id":"",
		"ctrl_net2_type":"",
		"ctrl_net2_mac":"",
		"ctrl_net2_ip":""
	},
	{
		"id":"B002",
		"cam_model":"Nex-5R (Black v1.03)",
		"cam_sn":"3404116",
		"cam_mac":"20:02:af:2f:f1:f0",
		"cam_ssid":"DIRECT-APE0:B002",
		"cam_pw":"a1AyG1ph",
		"cam_ip":"192.168.122.1:8080",
		"lens_model":"SELP1650 (Black)",
		"lens_sn":"1832249",
		"ctrl_model":"Orange Pi Zero 2",
		"ctrl_sn":"",
		"ctrl_os":"ubuntu",
		"ctrl_card_model":"",
		"ctrl_card_sn":"",
		"ctrl_net1_id":"eth0",
		"ctrl_net1_type":"Ethernet",
		"ctrl_net1_mac":"f2:d7:41:c8:84:d6",
		"ctrl_net1_ip":"192.168.23.184",
		"ctrl_net2_id":"wlan0",
		"ctrl_net2_type":"Wireless",
		"ctrl_net2_mac":"",
		"ctrl_net2_ip":""
	},
	{
		"id":"B003",
		"cam_model":"Nex-5R (Black v1.03)",
		"cam_sn":"3459545",
		"cam_mac":"5c:f8:a1:05:79:34",
		"cam_ssid":"DIRECT-XqE0:B003",
		"cam_pw":"bLMtsEhS",
		"cam_ip":"192.168.122.1:8080",
		"lens_model":"SELP1650 (Black)",
		"lens_sn":"2174413",
		"ctrl_model":"",
		"ctrl_sn":"",
		"ctrl_os":"",
		"ctrl_card_model":"",
		"ctrl_card_sn":"",
		"ctrl_net1_id":"",
		"ctrl_net1_type":"",
		"ctrl_net1_mac":"4e:b5:a7:9b:8d:0f",
		"ctrl_net1_ip":"192.168.23.211",
		"ctrl_net2_id":"",
		"ctrl_net2_type":"",
		"ctrl_net2_mac":"",
		"ctrl_net2_ip":""
	},
	{
		"id":"B004",
		"cam_model":"Nex-5R (Black v1.03)",
		"cam_sn":"3452150",
		"cam_mac":"60:21:c0:f7:91:5f",
		"cam_ssid":"DIRECT-FGE0:B004",
		"cam_pw":"GjWT8BA3",
		"cam_ip":"192.168.122.1:8080",
		"lens_model":"SELP1650 (Black)",
		"lens_sn":"2143400",
		"ctrl_model":"",
		"ctrl_sn":"",
		"ctrl_os":"",
		"ctrl_card_model":"",
		"ctrl_card_sn":"",
		"ctrl_net1_id":"",
		"ctrl_net1_type":"",
		"ctrl_net1_mac":"8e:3c:35:35:e0:99",
		"ctrl_net1_ip":"192.168.23.149",
		"ctrl_net2_id":"",
		"ctrl_net2_type":"",
		"ctrl_net2_mac":"",
		"ctrl_net2_ip":""
	},
	{
		"id":"B005",
		"cam_model":"Nex-5R (Black v1.03)",
		"cam_sn":"3403347",
		"cam_mac":"20:02:af:2b:d9:38",
		"cam_ssid":"DIRECT-cvE0:B005",
		"cam_pw":"UKp7NHYw",
		"cam_ip":"192.168.122.1:8080",
		"lens_model":"SELP1650 (Black)",
		"lens_sn":"2590030",
		"ctrl_model":"",
		"ctrl_sn":"",
		"ctrl_os":"",
		"ctrl_card_model":"",
		"ctrl_card_sn":"",
		"ctrl_net1_id":"",
		"ctrl_net1_type":"",
		"ctrl_net1_mac":"fe:bd:b3:64:6b:9d",
		"ctrl_net1_ip":"192.168.23.167",
		"ctrl_net2_id":"",
		"ctrl_net2_type":"",
		"ctrl_net2_mac":"",
		"ctrl_net2_ip":""
	},
	{
		"id":"B006",
		"cam_model":"Nex-5R (Black v1.03)",
		"cam_sn":"345707",
		"cam_mac":"40:f3:08:72:ee:f5",
		"cam_ssid":"DIRECT-zsE0:B006",
		"cam_pw":"K8bcZePi",
		"cam_ip":"192.168.122.1:8080",
		"lens_model":"SELP1650 (Black)",
		"lens_sn":"2380504",
		"ctrl_model":"",
		"ctrl_sn":"",
		"ctrl_os":"",
		"ctrl_card_model":"",
		"ctrl_card_sn":"",
		"ctrl_net1_id":"",
		"ctrl_net1_type":"",
		"ctrl_net1_mac":"b2:4a:49:3e:a6:5b",
		"ctrl_net1_ip":"192.168.23.103",
		"ctrl_net2_id":"",
		"ctrl_net2_type":"",
		"ctrl_net2_mac":"",
		"ctrl_net2_ip":""
	},
	{
		"id":"B007",
		"cam_model":"Nex-5R (White v1.03)",
		"cam_sn":"3413150",
		"cam_mac":"60:21:c0:65:1a:e8",
		"cam_ssid":"DIRECT-8eE0:B007",
		"cam_pw":"7NjpFxR2",
		"cam_ip":"192.168.122.1:8080",
		"lens_model":"SELP1650 (Sliver)",
		"lens_sn":"5844577",
		"ctrl_model":"",
		"ctrl_sn":"",
		"ctrl_os":"",
		"ctrl_card_model":"",
		"ctrl_card_sn":"",
		"ctrl_net1_id":"",
		"ctrl_net1_type":"",
		"ctrl_net1_mac":"fe:6c:09:ef:b1:e3",
		"ctrl_net1_ip":"192.168.23.179",
		"ctrl_net2_id":"",
		"ctrl_net2_type":"",
		"ctrl_net2_mac":"",
		"ctrl_net2_ip":""
	},
	{
		"id":"B008",
		"cam_model":"Nex-5R (Silver v1.03)",
		"cam_sn":"3408275",
		"cam_mac":"20:02:af:2c:76:4b",
		"cam_ssid":"DIRECT-F8E0:B008",
		"cam_pw":"4upqv7Eu",
		"cam_ip":"192.168.122.1:8080",
		"lens_model":"SELP1650 (Sliver)",
		"lens_sn":"6210443",
		"ctrl_model":"",
		"ctrl_sn":"",
		"ctrl_os":"",
		"ctrl_card_model":"",
		"ctrl_card_sn":"",
		"ctrl_net1_id":"",
		"ctrl_net1_type":"",
		"ctrl_net1_mac":"e6:20:d8:6b:8c:a3",
		"ctrl_net1_ip":"192.168.23.107",
		"ctrl_net2_id":"",
		"ctrl_net2_type":"",
		"ctrl_net2_mac":"",
		"ctrl_net2_ip":""
	},
	{
		"id":"B009",
		"cam_model":"Nex-5R (Silver v1.03)",
		"cam_sn":"3432474",
		"cam_mac":"60:21:c0:26:86:af",
		"cam_ssid":"DIRECT-voE0:B009",
		"cam_pw":"pyN5C52B",
		"cam_ip":"192.168.122.1:8080",
		"lens_model":"SELP1650 (Sliver)",
		"lens_sn":"5837925",
		"ctrl_model":"",
		"ctrl_sn":"",
		"ctrl_os":"",
		"ctrl_card_model":"",
		"ctrl_card_sn":"",
		"ctrl_net1_id":"",
		"ctrl_net1_type":"",
		"ctrl_net1_mac":"e2:bb:61:d3:d7:40",
		"ctrl_net1_ip":"192.168.23.138",
		"ctrl_net2_id":"",
		"ctrl_net2_type":"",
		"ctrl_net2_mac":"",
		"ctrl_net2_ip":""
	},
	{
		"id":"C001",
		"cam_model":"Nex-5T (Black v1.01)",
		"cam_sn":"4670786",
		"cam_mac":"f0:27:65:b8:a5:fc",
		"cam_ssid":"DIRECT-J3E0:C001",
		"cam_pw":"jtRYT2s6",
		"cam_ip":"192.168.122.1:8080",
		"lens_model":"SELP1650 (Black)",
		"lens_sn":"4584024",
		"ctrl_model":"",
		"ctrl_sn":"",
		"ctrl_os":"",
		"ctrl_card_model":"",
		"ctrl_card_sn":"",
		"ctrl_net1_id":"",
		"ctrl_net1_type":"",
		"ctrl_net1_mac":"3e:a6:39:e7:87:54",
		"ctrl_net1_ip":"192.168.23.244",
		"ctrl_net2_id":"",
		"ctrl_net2_type":"",
		"ctrl_net2_mac":"",
		"ctrl_net2_ip":""
	},
	{
		"id":"C002",
		"cam_model":"Nex-5T (Black v1.00)",
		"cam_sn":"4687734",
		"cam_mac":"1c:99:4c:02:f4:1c",
		"cam_ssid":"DIRECT-G8E0:C002",
		"cam_pw":"1Yja3Jdi",
		"cam_ip":"192.168.122.1:8080",
		"lens_model":"SELP1650 (Black)",
		"lens_sn":"2450402",
		"ctrl_model":"",
		"ctrl_sn":"",
		"ctrl_os":"",
		"ctrl_card_model":"",
		"ctrl_card_sn":"",
		"ctrl_net1_id":"",
		"ctrl_net1_type":"",
		"ctrl_net1_mac":"3e:63:50:53:e4:e6",
		"ctrl_net1_ip":"192.168.23.168",
		"ctrl_net2_id":"",
		"ctrl_net2_type":"",
		"ctrl_net2_mac":"",
		"ctrl_net2_ip":""
	},
	{
		"id":"C003",
		"cam_model":"Nex-5T (Black v1.00)",
		"cam_sn":"4676364",
		"cam_mac":"1c:99:4c:09:7c:a4",
		"cam_ssid":"DIRECT-edE0:C003",
		"cam_pw":"dL3iVS9z",
		"cam_ip":"192.168.122.1:8080",
		"lens_model":"SELP1650 (Black)",
		"lens_sn":"2240437",
		"ctrl_model":"",
		"ctrl_sn":"",
		"ctrl_os":"",
		"ctrl_card_model":"",
		"ctrl_card_sn":"",
		"ctrl_net1_id":"",
		"ctrl_net1_type":"",
		"ctrl_net1_mac":"f6:b3:b6:60:23:c1",
		"ctrl_net1_ip":"192.168.23.163",
		"ctrl_net2_id":"",
		"ctrl_net2_type":"",
		"ctrl_net2_mac":"",
		"ctrl_net2_ip":""
	},
	{
		"id":"C004",
		"cam_model":"Nex-5T (White v1.00)",
		"cam_sn":"4679453",
		"cam_mac":"1c:99:4c:02:40:cc",
		"cam_ssid":"DIRECT-ZOE0:C004",
		"cam_pw":"DUXvKEFe",
		"cam_ip":"192.168.122.1:8080",
		"lens_model":"SELP1650 (Sliver)",
		"lens_sn":"5861414",
		"ctrl_model":"",
		"ctrl_sn":"",
		"ctrl_os":"",
		"ctrl_card_model":"",
		"ctrl_card_sn":"",
		"ctrl_net1_id":"",
		"ctrl_net1_type":"",
		"ctrl_net1_mac":"de:fb:4f:8b:0f:a1",
		"ctrl_net1_ip":"192.168.23.193",
		"ctrl_net2_id":"",
		"ctrl_net2_type":"",
		"ctrl_net2_mac":"",
		"ctrl_net2_ip":""
	},
	{
		"id":"C005",
		"cam_model":"Nex-5T (Sliver v1.00)",
		"cam_sn":"4691145",
		"cam_mac":"1c:99:4c:09:01:09",
		"cam_ssid":"DIRECT-ghE0:C005",
		"cam_pw":"QfWdgyGb",
		"cam_ip":"192.168.122.1:8080",
		"lens_model":"SELP1650 (Sliver)",
		"lens_sn":"6282710",
		"ctrl_model":"",
		"ctrl_sn":"",
		"ctrl_os":"",
		"ctrl_card_model":"",
		"ctrl_card_sn":"",
		"ctrl_net1_id":"",
		"ctrl_net1_type":"",
		"ctrl_net1_mac":"92:ba:e8:d1:b3:66",
		"ctrl_net1_ip":"192.168.23.176",
		"ctrl_net2_id":"",
		"ctrl_net2_type":"",
		"ctrl_net2_mac":"",
		"ctrl_net2_ip":""
	},
	{
		"id":"C006",
		"cam_model":"Nex-5T (White v1.00)",
		"cam_sn":"4694573",
		"cam_mac":"1c:99:4c:25:9d:0f",
		"cam_ssid":"DIRECT-o8E0:C006",
		"cam_pw":"GBLbiDJP",
		"cam_ip":"192.168.122.1:8080",
		"lens_model":"SELP1650 (Sliver)",
		"lens_sn":"6294919",
		"ctrl_model":"",
		"ctrl_sn":"",
		"ctrl_os":"",
		"ctrl_card_model":"",
		"ctrl_card_sn":"",
		"ctrl_net1_id":"",
		"ctrl_net1_type":"",
		"ctrl_net1_mac":"ae:92:db:b7:5d:57",
		"ctrl_net1_ip":"192.168.23.150",
		"ctrl_net2_id":"",
		"ctrl_net2_type":"",
		"ctrl_net2_mac":"",
		"ctrl_net2_ip":""
	},
	{
		"id":"C007",
		"cam_model":"Nex-5T (White v1.00)",
		"cam_sn":"5399845",
		"cam_mac":"1c:99:4c:9c:44:1d",
		"cam_ssid":"DIRECT-zqE0:C007",
		"cam_pw":"t7GuJF6j",
		"cam_ip":"192.168.122.1:8080",
		"lens_model":"SELP1650 (Sliver)",
		"lens_sn":"6415139",
		"ctrl_model":"",
		"ctrl_sn":"",
		"ctrl_os":"",
		"ctrl_card_model":"",
		"ctrl_card_sn":"",
		"ctrl_net1_id":"",
		"ctrl_net1_type":"",
		"ctrl_net1_mac":"62:f0:82:07:f2:ac",
		"ctrl_net1_ip":"192.168.23.248",
		"ctrl_net2_id":"",
		"ctrl_net2_type":"",
		"ctrl_net2_mac":"",
		"ctrl_net2_ip":""
	},
	{
		"id":"C008",
		"cam_model":"Nex-5T (Black v1.00)",
		"cam_sn":"4690029",
		"cam_mac":"1c:99:4c:25:82:e1",
		"cam_ssid":"DIRECT-fiE0:C008",
		"cam_pw":"HWBz9iTz",
		"cam_ip":"192.168.122.1:8080",
		"lens_model":"SELP1650 (Black)",
		"lens_sn":"8308614",
		"ctrl_model":"",
		"ctrl_sn":"",
		"ctrl_os":"",
		"ctrl_card_model":"",
		"ctrl_card_sn":"",
		"ctrl_net1_id":"",
		"ctrl_net1_type":"",
		"ctrl_net1_mac":"a6:7d:1d:b0:51:21",
		"ctrl_net1_ip":"192.168.23.157",
		"ctrl_net2_id":"",
		"ctrl_net2_type":"",
		"ctrl_net2_mac":"",
		"ctrl_net2_ip":""
	},
	{
		"id":"C009",
		"cam_model":"Nex-5T (Black v1.00)",
		"cam_sn":"4708892",
		"cam_mac":"1c:99:4c:8a:1e:34",
		"cam_ssid":"DIRECT-JuE0:C009",
		"cam_pw":"k3WjGyxj",
		"cam_ip":"192.168.122.1:8080",
		"lens_model":"SELP1650 (Black)",
		"lens_sn":"2597083",
		"ctrl_model":"",
		"ctrl_sn":"",
		"ctrl_os":"",
		"ctrl_card_model":"",
		"ctrl_card_sn":"",
		"ctrl_net1_id":"",
		"ctrl_net1_type":"",
		"ctrl_net1_mac":"0e:14:c5:6a:15:3f",
		"ctrl_net1_ip":"192.168.23.117",
		"ctrl_net2_id":"",
		"ctrl_net2_type":"",
		"ctrl_net2_mac":"",
		"ctrl_net2_ip":""
	},
	{
		"id":"C010",
		"cam_model":"Nex-5T (White v1.01)",
		"cam_sn":"4673726",
		"cam_mac":"1c:99:4c:0c:41:52",
		"cam_ssid":"DIRECT-UBE0:C010",
		"cam_pw":"7n3YFvue",
		"cam_ip":"192.168.122.1:8080",
		"lens_model":"SELP1650 (Sliver)",
		"lens_sn":"6145685",
		"ctrl_model":"",
		"ctrl_sn":"",
		"ctrl_os":"",
		"ctrl_card_model":"",
		"ctrl_card_sn":"",
		"ctrl_net1_id":"",
		"ctrl_net1_type":"",
		"ctrl_net1_mac":"26:cf:e5:cc:33:81",
		"ctrl_net1_ip":"192.168.23.180",
		"ctrl_net2_id":"",
		"ctrl_net2_type":"",
		"ctrl_net2_mac":"",
		"ctrl_net2_ip":""
	},
	{
		"id":"C011",
		"cam_model":"Nex-5T (Black v1.00)",
		"cam_sn":"4675942",
		"cam_mac":"1c:99:4c:0F:1c:d4",
		"cam_ssid":"DIRECT-1xE0:C011",
		"cam_pw":"SjUqrRvb",
		"cam_ip":"192.168.122.1:8080",
		"lens_model":"SELP1650 (Black)",
		"lens_sn":"2379318",
		"ctrl_model":"",
		"ctrl_sn":"",
		"ctrl_os":"",
		"ctrl_card_model":"",
		"ctrl_card_sn":"",
		"ctrl_net1_id":"",
		"ctrl_net1_type":"",
		"ctrl_net1_mac":"a2:dc:72:f7:a6:9d",
		"ctrl_net1_ip":"192.168.23.174",
		"ctrl_net2_id":"",
		"ctrl_net2_type":"",
		"ctrl_net2_mac":"",
		"ctrl_net2_ip":""
	},
	{
		"id":"C012",
		"cam_model":"Nex-5T (Black v1.00)",
		"cam_sn":"4725592",
		"cam_mac":"78:4b:87:3e:55:6f",
		"cam_ssid":"DIRECT-9xE0:C012",
		"cam_pw":"QmEMcy2y",
		"cam_ip":"192.168.122.1:8080",
		"lens_model":"SELP1650 (Black)",
		"lens_sn":"1819683",
		"ctrl_model":"",
		"ctrl_sn":"",
		"ctrl_os":"",
		"ctrl_card_model":"",
		"ctrl_card_sn":"",
		"ctrl_net1_id":"",
		"ctrl_net1_type":"",
		"ctrl_net1_mac":"42:4f:5c:87:d1:6e",
		"ctrl_net1_ip":"192.168.23.139",
		"ctrl_net2_id":"",
		"ctrl_net2_type":"",
		"ctrl_net2_mac":"",
		"ctrl_net2_ip":""
	},
	{
		"id":"C013",
		"cam_model":"Nex-5T (Black v1.00)",
		"cam_sn":"4687384",
		"cam_mac":"1c:99:4c:08:39:2c",
		"cam_ssid":"DIRECT-sbE0:C013",
		"cam_pw":"NPSZSR2q",
		"cam_ip":"192.168.122.1:8080",
		"lens_model":"SELP1650 (Black)",
		"lens_sn":"2447880",
		"ctrl_model":"",
		"ctrl_sn":"",
		"ctrl_os":"",
		"ctrl_card_model":"",
		"ctrl_card_sn":"",
		"ctrl_net1_id":"",
		"ctrl_net1_type":"",
		"ctrl_net1_mac":"46:76:46:e6:42:06",
		"ctrl_net1_ip":"192.168.23.108",
		"ctrl_net2_id":"",
		"ctrl_net2_type":"",
		"ctrl_net2_mac":"",
		"ctrl_net2_ip":""
	},
	{
		"id":"D001",
		"cam_model":"Nex-6 (Black v1.03)",
		"cam_sn":"3425965",
		"cam_mac":"5c:f8:a1:06:cf:96",
		"cam_ssid":"DIRECT-4qe0:D001",
		"cam_pw":"Bnw4FL1C",
		"cam_ip":"192.168.122.1:8080",
		"lens_model":"SELP1650 (Black)",
		"lens_sn":"4127938",
		"ctrl_model":"",
		"ctrl_sn":"",
		"ctrl_os":"",
		"ctrl_card_model":"",
		"ctrl_card_sn":"",
		"ctrl_net1_id":"",
		"ctrl_net1_type":"",
		"ctrl_net1_mac":"ba:a9:c0:e2:1e:77",
		"ctrl_net1_ip":"192.168.23.227",
		"ctrl_net2_id":"",
		"ctrl_net2_type":"",
		"ctrl_net2_mac":"",
		"ctrl_net2_ip":""
	},
	{
		"id":"D002",
		"cam_model":"Nex-6 (Black v1.03)",
		"cam_sn":"656691",
		"cam_mac":"1c:99:4c:a8:a1:99",
		"cam_ssid":"DIRECT-SVE0:D002",
		"cam_pw":"ruz7eqrd",
		"cam_ip":"192.168.122.1:8080",
		"lens_model":"SELP1650 (Black)",
		"lens_sn":"2552040",
		"ctrl_model":"",
		"ctrl_sn":"",
		"ctrl_os":"",
		"ctrl_card_model":"",
		"ctrl_card_sn":"",
		"ctrl_net1_id":"",
		"ctrl_net1_type":"",
		"ctrl_net1_mac":"de:26:56:3b:e0:3d",
		"ctrl_net1_ip":"192.168.23.151",
		"ctrl_net2_id":"",
		"ctrl_net2_type":"",
		"ctrl_net2_mac":"",
		"ctrl_net2_ip":""
	},
	{
		"id":"D003",
		"cam_model":"Nex-6 (Black v1.03)",
		"cam_sn":"3402340",
		"cam_mac":"20:02:af:24:34:B0",
		"cam_ssid":"DIRECT-xaE0:D003",
		"cam_pw":"uSMSmcha",
		"cam_ip":"192.168.122.1:8080",
		"lens_model":"SELP1650 (Black)",
		"lens_sn":"2732818",
		"ctrl_model":"",
		"ctrl_sn":"",
		"ctrl_os":"",
		"ctrl_card_model":"",
		"ctrl_card_sn":"",
		"ctrl_net1_id":"",
		"ctrl_net1_type":"",
		"ctrl_net1_mac":"8e:a0:ca:24:f6:67",
		"ctrl_net1_ip":"192.168.23.135",
		"ctrl_net2_id":"",
		"ctrl_net2_type":"",
		"ctrl_net2_mac":"",
		"ctrl_net2_ip":""
	},
	{
		"id":"E001",
		"cam_model":"ILCE-5100 (White v1.10)",
		"cam_sn":"5276890",
		"cam_mac":"fc:db:b3:1c:f8:41",
		"cam_ssid":"DIRECT-opE0:E001",
		"cam_pw":"dMVNUfqG",
		"cam_ip":"192.168.122.1:8080",
		"lens_model":"SELP1650 (Sliver)",
		"lens_sn":"7490434",
		"ctrl_model":"",
		"ctrl_sn":"",
		"ctrl_os":"",
		"ctrl_card_model":"",
		"ctrl_card_sn":"",
		"ctrl_net1_id":"",
		"ctrl_net1_type":"",
		"ctrl_net1_mac":"a2:40:56:24:db:6a",
		"ctrl_net1_ip":"192.168.23.169",
		"ctrl_net2_id":"",
		"ctrl_net2_type":"",
		"ctrl_net2_mac":"",
		"ctrl_net2_ip":""
	},
	{
		"id":"E002",
		"cam_model":"ILCE-5100 (White v1.10)",
		"cam_sn":"4568714",
		"cam_mac":"a4:08:ea:83:f3:95",
		"cam_ssid":"DIRECT-eUE0:E002",
		"cam_pw":"YXERpGbW",
		"cam_ip":"192.168.122.1:8080",
		"lens_model":"SELP1650 (Sliver)",
		"lens_sn":"7996172",
		"ctrl_model":"",
		"ctrl_sn":"",
		"ctrl_os":"",
		"ctrl_card_model":"",
		"ctrl_card_sn":"",
		"ctrl_net1_id":"",
		"ctrl_net1_type":"",
		"ctrl_net1_mac":"b2:dd:48:50:4e:6d",
		"ctrl_net1_ip":"192.168.23.237",
		"ctrl_net2_id":"",
		"ctrl_net2_type":"",
		"ctrl_net2_mac":"",
		"ctrl_net2_ip":""
	},
	{
		"id":"E003",
		"cam_model":"ILCE-5100 (White v1.10)",
		"cam_sn":"4578491",
		"cam_mac":"b0:72:bf:3e:ba:99",
		"cam_ssid":"DIRECT-9TE0:E003",
		"cam_pw":"v2vN9rqt",
		"cam_ip":"192.168.122.1:8080",
		"lens_model":"SELP1650 (Sliver)",
		"lens_sn":"8128311",
		"ctrl_model":"",
		"ctrl_sn":"",
		"ctrl_os":"",
		"ctrl_card_model":"",
		"ctrl_card_sn":"",
		"ctrl_net1_id":"",
		"ctrl_net1_type":"",
		"ctrl_net1_mac":"66:3c:38:35:51:41",
		"ctrl_net1_ip":"192.168.23.101",
		"ctrl_net2_id":"",
		"ctrl_net2_type":"",
		"ctrl_net2_mac":"",
		"ctrl_net2_ip":""
	},
	{
		"id":"F001",
		"cam_model":"ILCE-5100 (Black v1.10)",
		"cam_sn":"4531261",
		"cam_mac":"fc:db:b3:56:9a:57",
		"cam_ssid":"DIRECT-xYE0:F001",
		"cam_pw":"YHFZB6wH",
		"cam_ip":"192.168.122.1:8080",
		"lens_model":"SELP1650 (Black)",
		"lens_sn":"1831075",
		"ctrl_model":"",
		"ctrl_sn":"",
		"ctrl_os":"",
		"ctrl_card_model":"",
		"ctrl_card_sn":"",
		"ctrl_net1_id":"",
		"ctrl_net1_type":"",
		"ctrl_net1_mac":"f2:fb:1f:dd:85:48",
		"ctrl_net1_ip":"192.168.23.220",
		"ctrl_net2_id":"",
		"ctrl_net2_type":"",
		"ctrl_net2_mac":"",
		"ctrl_net2_ip":""
	},
	{
		"id":"G001",
		"cam_model":"ILCE-7 (Black v1.02)",
		"cam_sn":"4676236",
		"cam_mac":"1c:99:4c:8f:b3:b6",
		"cam_ssid":"DIRECT-YYE0:G001",
		"cam_pw":"S91CuwPu",
		"cam_ip":"192.168.122.1:8080",
		"lens_model":"SEL2870 (Black)",
		"lens_sn":"4209444",
		"ctrl_model":"",
		"ctrl_sn":"",
		"ctrl_os":"",
		"ctrl_card_model":"",
		"ctrl_card_sn":"",
		"ctrl_net1_id":"",
		"ctrl_net1_type":"",
		"ctrl_net1_mac":"06:bb:62:32:6f:c2",
		"ctrl_net1_ip":"192.168.23.136",
		"ctrl_net2_id":"",
		"ctrl_net2_type":"",
		"ctrl_net2_mac":"",
		"ctrl_net2_ip":""
	},
{}]